; Engine configuration file.
; It's best edited using the editor UI and not directly,
; since the parameters that go here are not all obvious.
;
; Format:
;   [section] ; section goes between []
;   param=value ; assign values to parameters

config_version=4

_global_script_classes=[  ]
_global_script_class_icons={
}

[application]

config/name="Fortune Burst"
run/main_scene="res://Scenes/Main.tscn"
boot_splash/image="res://Resources/Sprites/bg_splash-min.png"
boot_splash/bg_color=Color( 0.141176, 0.141176, 0.141176, 1 )
config/icon="res://icon.png"

[autoload]

Global="*res://Scripts/Global.gd"

[debug]

gdscript/warnings/unused_class_variable=true
gdscript/warnings/unsafe_property_access=true
gdscript/warnings/unsafe_method_access=true
gdscript/warnings/unsafe_cast=true
gdscript/warnings/unsafe_call_argument=true

[display]

window/size/width=411
window/size/height=731
window/size/borderless=true
window/size/test_width=822
window/size/test_height=1462
window/dpi/allow_hidpi=true
window/handheld/orientation="sensor_portrait"
window/stretch/mode="2d"
window/stretch/aspect="expand"

[importer_defaults]

texture={
"compress/bptc_ldr": 0,
"compress/hdr_mode": 0,
"compress/lossy_quality": 0.7,
"compress/mode": 0,
"compress/normal_map": 0,
"detect_3d": false,
"flags/anisotropic": false,
"flags/filter": true,
"flags/mipmaps": true,
"flags/repeat": 0,
"flags/srgb": 2,
"process/HDR_as_SRGB": false,
"process/fix_alpha_border": true,
"process/invert_color": false,
"process/premult_alpha": false,
"size_limit": 0,
"stream": false,
"svg/scale": 1.0
}

[input_devices]

pointing/emulate_touch_from_mouse=true

[logging]

file_logging/enable_file_logging.pc=false

[rendering]

vram_compression/import_etc=true
vram_compression/import_etc2=false
environment/default_environment="res://default_env.tres"
